\relax 
\catcode `"\active 
\gdef \LT@i {\LT@entry 
    {1}{211.16928pt}\LT@entry 
    {1}{239.62204pt}}
\select@language{russian}
\@writefile{toc}{\select@language{russian}}
\@writefile{lof}{\select@language{russian}}
\@writefile{lot}{\select@language{russian}}
\@writefile{toc}{\contentsline {likechapter}{\IeC {\CYRV }\IeC {\cyrv }\IeC {\cyre }\IeC {\cyrd }\IeC {\cyre }\IeC {\cyrn }\IeC {\cyri }\IeC {\cyre }}{3}}
\@writefile{toc}{\contentsline {section}{\numberline {1}\IeC {\CYRT }\IeC {\cyre }\IeC {\cyrh }\IeC {\cyrn }\IeC {\cyro }\IeC {\cyrl }\IeC {\cyro }\IeC {\cyrg }\IeC {\cyri }\IeC {\cyrya } \IeC {\cyrp }\IeC {\cyro }\IeC {\cyrerev }\IeC {\cyrt }\IeC {\cyra }\IeC {\cyrp }\IeC {\cyrn }\IeC {\cyro }\IeC {\cyrg }\IeC {\cyro } \IeC {\cyrf }\IeC {\cyro }\IeC {\cyrr }\IeC {\cyrm }\IeC {\cyri }\IeC {\cyrr }\IeC {\cyro }\IeC {\cyrv }\IeC {\cyra }\IeC {\cyrn }\IeC {\cyri }\IeC {\cyrya }\\\IeC {\cyru }\IeC {\cyrm }\IeC {\cyrs }\IeC {\cyrt }\IeC {\cyrv }\IeC {\cyre }\IeC {\cyrn }\IeC {\cyrn }\IeC {\cyrery }\IeC {\cyrh } \IeC {\cyrd }\IeC {\cyre }\IeC {\cyrishrt }\IeC {\cyrs }\IeC {\cyrt }\IeC {\cyrv }\IeC {\cyri }\IeC {\cyrishrt }}{6}}
\@writefile{toc}{\contentsline {section}{\numberline {2}\IeC {\CYRO }\IeC {\cyrt }\IeC {\cyrr }\IeC {\cyra }\IeC {\cyrzh }\IeC {\cyre }\IeC {\cyrn }\IeC {\cyri }\IeC {\cyre } \IeC {\cyrs }\IeC {\cyro }\IeC {\cyrd }\IeC {\cyre }\IeC {\cyrr }\IeC {\cyrzh }\IeC {\cyra }\IeC {\cyrn }\IeC {\cyri }\IeC {\cyrya } \IeC {\cyri } \IeC {\cyrr }\IeC {\cyre }\IeC {\cyrz }\IeC {\cyru }\IeC {\cyrl }\IeC {\cyrsftsn }\IeC {\cyrt }\IeC {\cyra }\IeC {\cyrt }\IeC {\cyro }\IeC {\cyrv } \IeC {\cyrv } \IeC {\cyro }\IeC {\cyrb }\IeC {\cyru }\IeC {\cyrch }\IeC {\cyre }\IeC {\cyrn }\IeC {\cyri }\IeC {\cyri }\\ \IeC {\cyrt }\IeC {\cyre }\IeC {\cyrm }\IeC {\cyre }: <<\IeC {\CYRM }\IeC {\cyre }\IeC {\cyrt }\IeC {\cyro }\IeC {\cyrd } \IeC {\cyrk }\IeC {\cyro }\IeC {\cyro }\IeC {\cyrr }\IeC {\cyrd }\IeC {\cyri }\IeC {\cyrn }\IeC {\cyra }\IeC {\cyrt }>>}{8}}
\citation{atanasjan}
\@writefile{toc}{\contentsline {section}{\numberline {3}\IeC {\CYRS }\IeC {\cyrr }\IeC {\cyra }\IeC {\cyrv }\IeC {\cyrn }\IeC {\cyri }\IeC {\cyrt }\IeC {\cyre }\IeC {\cyrl }\IeC {\cyrsftsn }\IeC {\cyrn }\IeC {\cyrery }\IeC {\cyrishrt } \IeC {\cyra }\IeC {\cyrn }\IeC {\cyra }\IeC {\cyrl }\IeC {\cyri }\IeC {\cyrz } \IeC {\cyrm }\IeC {\cyre }\IeC {\cyrt }\IeC {\cyro }\IeC {\cyrd }\IeC {\cyri }\IeC {\cyrch }\IeC {\cyre }\IeC {\cyrs }\IeC {\cyrk }\IeC {\cyri }\IeC {\cyrh } \IeC {\cyro }\IeC {\cyrs }\IeC {\cyro }\IeC {\cyrb }\IeC {\cyre }\IeC {\cyrn }\IeC {\cyrn }\IeC {\cyro }\IeC {\cyrs }\IeC {\cyrt }\IeC {\cyre }\IeC {\cyrishrt } \\ \IeC {\cyri }\IeC {\cyrz }\IeC {\cyrl }\IeC {\cyro }\IeC {\cyrzh }\IeC {\cyre }\IeC {\cyrn }\IeC {\cyri }\IeC {\cyrya } \IeC {\cyrt }\IeC {\cyre }\IeC {\cyrm }\IeC {\cyrery } <<\IeC {\CYRM }\IeC {\cyre }\IeC {\cyrt }\IeC {\cyro }\IeC {\cyrd } \IeC {\cyrk }\IeC {\cyro }\IeC {\cyro }\IeC {\cyrr }\IeC {\cyrd }\IeC {\cyri }\IeC {\cyrn }\IeC {\cyra }\IeC {\cyrt }>> \\\IeC {\cyrv } \IeC {\cyrr }\IeC {\cyra }\IeC {\cyrz }\IeC {\cyrl }\IeC {\cyri }\IeC {\cyrch }\IeC {\cyrn }\IeC {\cyrery }\IeC {\cyrh } \IeC {\cyru }\IeC {\cyrch }\IeC {\cyre }\IeC {\cyrb }\IeC {\cyrn }\IeC {\cyri }\IeC {\cyrk }\IeC {\cyra }\IeC {\cyrh }}{11}}
\citation{atanasjan}
\citation{butuzov}
\citation{sharygin}
\gdef \LT@ii {\LT@entry 
    {3}{83.93187pt}\LT@entry 
    {3}{126.21101pt}\LT@entry 
    {3}{126.21101pt}\LT@entry 
    {3}{126.21101pt}}
\@writefile{lot}{\contentsline {table}{\numberline {1}{\ignorespaces \IeC {\CYRS }\IeC {\cyrr }\IeC {\cyra }\IeC {\cyrv }\IeC {\cyrn }\IeC {\cyri }\IeC {\cyrt }\IeC {\cyre }\IeC {\cyrl }\IeC {\cyrsftsn }\IeC {\cyrn }\IeC {\cyrery }\IeC {\cyrishrt } \IeC {\cyrm }\IeC {\cyre }\IeC {\cyrt }\IeC {\cyro }\IeC {\cyrd }\IeC {\cyri }\IeC {\cyrch }\IeC {\cyre }\IeC {\cyrs }\IeC {\cyrk }\IeC {\cyri }\IeC {\cyrishrt } \IeC {\cyra }\IeC {\cyrn }\IeC {\cyra }\IeC {\cyrl }\IeC {\cyri }\IeC {\cyrz } \IeC {\cyru }\IeC {\cyrch }\IeC {\cyre }\IeC {\cyrb }\IeC {\cyrn }\IeC {\cyri }\IeC {\cyrk }\IeC {\cyro }\IeC {\cyrv } \IeC {\cyri }\IeC {\cyrz } \IeC {\cyrf }\IeC {\cyre }\IeC {\cyrd }\IeC {\cyre }\IeC {\cyrr }\IeC {\cyra }\IeC {\cyrl }\IeC {\cyrsftsn }\IeC {\cyrn }\IeC {\cyro }\IeC {\cyrg }\IeC {\cyro } \IeC {\cyrk }\IeC {\cyro }\IeC {\cyrm }\IeC {\cyrp }\IeC {\cyrl }\IeC {\cyre }\IeC {\cyrk }\IeC {\cyrt }\IeC {\cyra }.}}{15}}
\newlabel{tab:method_analiz}{{1}{15}}
\citation{sharygin}
\citation{butuzov}
\citation{sharygin}
\citation{atanasjan}
\citation{atanasjan}
\citation{butuzov}
\@writefile{toc}{\contentsline {section}{\numberline {4}\IeC {\CYRL }\IeC {\cyro }\IeC {\cyrg }\IeC {\cyri }\IeC {\cyrk }\IeC {\cyro }-\IeC {\cyrm }\IeC {\cyra }\IeC {\cyrt }\IeC {\cyre }\IeC {\cyrm }\IeC {\cyra }\IeC {\cyrt }\IeC {\cyri }\IeC {\cyrch }\IeC {\cyre }\IeC {\cyrs }\IeC {\cyrk }\IeC {\cyri }\IeC {\cyrishrt } \IeC {\cyra }\IeC {\cyrn }\IeC {\cyra }\IeC {\cyrl }\IeC {\cyri }\IeC {\cyrz } \IeC {\cyrt }\IeC {\cyre }\IeC {\cyrm }\IeC {\cyrery } <<\IeC {\CYRM }\IeC {\cyre }\IeC {\cyrt }\IeC {\cyro }\IeC {\cyrd } \IeC {\cyrk }\IeC {\cyro }\IeC {\cyro }\IeC {\cyrr }\IeC {\cyrd }\IeC {\cyri }\IeC {\cyrn }\IeC {\cyra }\IeC {\cyrt }>>}{24}}
\gdef \LT@iii {\LT@entry 
    {3}{41.25273pt}\LT@entry 
    {3}{40.85274pt}\LT@entry 
    {3}{40.85274pt}\LT@entry 
    {3}{40.85274pt}\LT@entry 
    {3}{40.85274pt}\LT@entry 
    {3}{40.85274pt}\LT@entry 
    {3}{126.21101pt}\LT@entry 
    {3}{126.21101pt}\LT@entry 
    {3}{126.21101pt}\LT@entry 
    {3}{126.21101pt}}
\@writefile{lot}{\contentsline {table}{\numberline {2}{\ignorespaces \IeC {\CYRT }\IeC {\cyra }\IeC {\cyrb }\IeC {\cyrl }\IeC {\cyri }\IeC {\cyrc }\IeC {\cyra } \IeC {\cyri }\IeC {\cyrs }\IeC {\cyrt }\IeC {\cyri }\IeC {\cyrn }\IeC {\cyrn }\IeC {\cyro }\IeC {\cyrs }\IeC {\cyrt }\IeC {\cyri } \IeC {\cyrd }\IeC {\cyrl }\IeC {\cyrya } \IeC {\cyrl }\IeC {\cyre }\IeC {\cyrm }\IeC {\cyrm }\IeC {\cyrery } \IeC {\cyro } \IeC {\cyrk }\IeC {\cyro }\IeC {\cyrl }\IeC {\cyrl }\IeC {\cyri }\IeC {\cyrn }\IeC {\cyre }\IeC {\cyra }\IeC {\cyrr }\IeC {\cyrn }\IeC {\cyro }\IeC {\cyrs }\IeC {\cyrt }\IeC {\cyri } \IeC {\cyrv }\IeC {\cyre }\IeC {\cyrk }\IeC {\cyrt }\IeC {\cyro }\IeC {\cyrr }\IeC {\cyro }\IeC {\cyrv }.}}{25}}
\newlabel{tab:lemm}{{2}{25}}
\gdef \LT@iv {\LT@entry 
    {3}{41.25273pt}\LT@entry 
    {3}{40.85274pt}\LT@entry 
    {3}{40.85274pt}\LT@entry 
    {3}{40.85274pt}\LT@entry 
    {3}{40.85274pt}\LT@entry 
    {3}{40.85274pt}\LT@entry 
    {3}{126.21101pt}\LT@entry 
    {3}{126.21101pt}\LT@entry 
    {3}{126.21101pt}\LT@entry 
    {3}{126.21101pt}}
\@writefile{lot}{\contentsline {table}{\numberline {3}{\ignorespaces \IeC {\CYRT }\IeC {\cyra }\IeC {\cyrb }\IeC {\cyrl }\IeC {\cyri }\IeC {\cyrc }\IeC {\cyra } \IeC {\cyri }\IeC {\cyrs }\IeC {\cyrt }\IeC {\cyri }\IeC {\cyrn }\IeC {\cyrn }\IeC {\cyro }\IeC {\cyrs }\IeC {\cyrt }\IeC {\cyri } \IeC {\cyrd }\IeC {\cyrl }\IeC {\cyrya } \IeC {\cyrt }\IeC {\cyre }\IeC {\cyro }\IeC {\cyrr }\IeC {\cyre }\IeC {\cyrm }\IeC {\cyrery } \IeC {\cyro } \IeC {\cyrr }\IeC {\cyra }\IeC {\cyrz }\IeC {\cyrl }\IeC {\cyro }\IeC {\cyrzh }\IeC {\cyre }\IeC {\cyrn }\IeC {\cyri }\IeC {\cyri } \IeC {\cyrv }\IeC {\cyre }\IeC {\cyrk }\IeC {\cyrt }\IeC {\cyro }\IeC {\cyrr }\IeC {\cyra } \IeC {\cyrp }\IeC {\cyro } \IeC {\cyrd }\IeC {\cyrv }\IeC {\cyru }\IeC {\cyrm } \IeC {\cyrn }\IeC {\cyre }\IeC {\cyrk }\IeC {\cyro }\IeC {\cyrl }\IeC {\cyrl }\IeC {\cyri }\IeC {\cyrn }\IeC {\cyre }\IeC {\cyra }\IeC {\cyrr }\IeC {\cyrn }\IeC {\cyrery }\IeC {\cyrm } \IeC {\cyrv }\IeC {\cyre }\IeC {\cyrk }\IeC {\cyrt }\IeC {\cyro }\IeC {\cyrr }\IeC {\cyra }\IeC {\cyrm }.}}{27}}
\newlabel{tab:theorem2}{{3}{27}}
\@writefile{toc}{\contentsline {section}{\numberline {5}\IeC {\CYRM }\IeC {\cyre }\IeC {\cyrt }\IeC {\cyro }\IeC {\cyrd }\IeC {\cyri }\IeC {\cyrch }\IeC {\cyre }\IeC {\cyrs }\IeC {\cyrk }\IeC {\cyri }\IeC {\cyre } \IeC {\cyrr }\IeC {\cyre }\IeC {\cyrk }\IeC {\cyro }\IeC {\cyrm }\IeC {\cyre }\IeC {\cyrn }\IeC {\cyrd }\IeC {\cyra }\IeC {\cyrc }\IeC {\cyri }\IeC {\cyri } \IeC {\cyrk } \IeC {\cyri }\IeC {\cyrz }\IeC {\cyru }\IeC {\cyrch }\IeC {\cyre }\IeC {\cyrn }\IeC {\cyri }\IeC {\cyryu } \IeC {\cyrt }\IeC {\cyre }\IeC {\cyrm }\IeC {\cyrery } <<\IeC {\CYRM }\IeC {\cyre }\IeC {\cyrt }\IeC {\cyro }\IeC {\cyrd } \IeC {\cyrk }\IeC {\cyro }\IeC {\cyro }\IeC {\cyrr }\IeC {\cyrd }\IeC {\cyri }\IeC {\cyrn }\IeC {\cyra }\IeC {\cyrt }>>}{29}}
\gdef \LT@v {\LT@entry 
    {3}{21.33589pt}\LT@entry 
    {3}{97.75826pt}\LT@entry 
    {3}{83.53188pt}\LT@entry 
    {3}{83.53188pt}\LT@entry 
    {3}{83.53188pt}\LT@entry 
    {3}{89.22234pt}\LT@entry 
    {3}{83.53188pt}\LT@entry 
    {3}{83.53188pt}\LT@entry 
    {3}{83.53188pt}}
\@writefile{lot}{\contentsline {table}{\numberline {4}{\ignorespaces \IeC {\CYRR }\IeC {\cyra }\IeC {\cyrs }\IeC {\cyrsh }\IeC {\cyri }\IeC {\cyrr }\IeC {\cyre }\IeC {\cyrn }\IeC {\cyrn }\IeC {\cyro }\IeC {\cyre } \IeC {\cyrt }\IeC {\cyre }\IeC {\cyrm }\IeC {\cyra }\IeC {\cyrt }\IeC {\cyri }\IeC {\cyrch }\IeC {\cyre }\IeC {\cyrs }\IeC {\cyrk }\IeC {\cyro }\IeC {\cyre } \IeC {\cyrp }\IeC {\cyrl }\IeC {\cyra }\IeC {\cyrn }\IeC {\cyri }\IeC {\cyrr }\IeC {\cyro }\IeC {\cyrv }\IeC {\cyra }\IeC {\cyrn }\IeC {\cyri }\IeC {\cyre }.}}{32}}
\newlabel{tab:TemPlan9klass}{{4}{32}}
\gdef \LT@vi {\LT@entry 
    {3}{32.71683pt}\LT@entry 
    {3}{97.75826pt}\LT@entry 
    {3}{97.75826pt}\LT@entry 
    {3}{97.75826pt}\LT@entry 
    {3}{40.85274pt}}
\@writefile{toc}{\contentsline {section}{\numberline {6}\IeC {\CYRP }\IeC {\cyrr }\IeC {\cyri }\IeC {\cyrm }\IeC {\cyre }\IeC {\cyrr }\IeC {\cyrn }\IeC {\cyrery }\IeC {\cyre } \IeC {\cyrr }\IeC {\cyra }\IeC {\cyrs }\IeC {\cyrsh }\IeC {\cyri }\IeC {\cyrr }\IeC {\cyre }\IeC {\cyrn }\IeC {\cyrn }\IeC {\cyrery }\IeC {\cyre } \IeC {\cyrp }\IeC {\cyrl }\IeC {\cyra }\IeC {\cyrn }-\IeC {\cyrk }\IeC {\cyro }\IeC {\cyrn }\IeC {\cyrs }\IeC {\cyrp }\IeC {\cyre }\IeC {\cyrk }\IeC {\cyrt }\IeC {\cyrery }\\\IeC {\cyrn }\IeC {\cyre }\IeC {\cyrk }\IeC {\cyro }\IeC {\cyrt }\IeC {\cyro }\IeC {\cyrr }\IeC {\cyrery }\IeC {\cyrh } \IeC {\cyru }\IeC {\cyrr }\IeC {\cyro }\IeC {\cyrk }\IeC {\cyro }\IeC {\cyrv } \IeC {\cyrv } \IeC {\cyrt }\IeC {\cyre }\IeC {\cyrm }\IeC {\cyre } <<\IeC {\CYRM }\IeC {\cyre }\IeC {\cyrt }\IeC {\cyro }\IeC {\cyrd } \IeC {\cyrk }\IeC {\cyro }\IeC {\cyro }\IeC {\cyrr }\IeC {\cyrd }\IeC {\cyri }\IeC {\cyrn }\IeC {\cyra }\IeC {\cyrt }>>}{42}}
\@writefile{lot}{\contentsline {table}{\numberline {5}{\ignorespaces \IeC {\CYRS }\IeC {\cyrt }\IeC {\cyrr }\IeC {\cyru }\IeC {\cyrk }\IeC {\cyrt }\IeC {\cyru }\IeC {\cyrr }\IeC {\cyra } \IeC {\cyru }\IeC {\cyrr }\IeC {\cyro }\IeC {\cyrk }\IeC {\cyra }}}{42}}
\newlabel{tab:lesson_1}{{5}{42}}
\gdef \LT@vii {\LT@entry 
    {3}{32.71683pt}\LT@entry 
    {3}{97.75826pt}\LT@entry 
    {3}{97.75826pt}\LT@entry 
    {3}{97.75826pt}\LT@entry 
    {3}{40.85274pt}}
\@writefile{lot}{\contentsline {table}{\numberline {6}{\ignorespaces \IeC {\CYRS }\IeC {\cyrt }\IeC {\cyrr }\IeC {\cyru }\IeC {\cyrk }\IeC {\cyrt }\IeC {\cyru }\IeC {\cyrr }\IeC {\cyra } \IeC {\cyru }\IeC {\cyrr }\IeC {\cyro }\IeC {\cyrk }\IeC {\cyra }}}{44}}
\newlabel{tab:lesson_2}{{6}{44}}
\gdef \LT@viii {\LT@entry 
    {3}{32.71683pt}\LT@entry 
    {3}{97.75826pt}\LT@entry 
    {3}{97.75826pt}\LT@entry 
    {3}{97.75826pt}\LT@entry 
    {3}{40.85274pt}}
\@writefile{lot}{\contentsline {table}{\numberline {7}{\ignorespaces \IeC {\CYRS }\IeC {\cyrt }\IeC {\cyrr }\IeC {\cyru }\IeC {\cyrk }\IeC {\cyrt }\IeC {\cyru }\IeC {\cyrr }\IeC {\cyra } \IeC {\cyru }\IeC {\cyrr }\IeC {\cyro }\IeC {\cyrk }\IeC {\cyra }}}{47}}
\newlabel{tab:lesson_3}{{7}{47}}
\gdef \LT@ix {\LT@entry 
    {3}{32.71683pt}\LT@entry 
    {3}{97.75826pt}\LT@entry 
    {3}{97.75826pt}\LT@entry 
    {3}{97.75826pt}\LT@entry 
    {3}{40.85274pt}}
\@writefile{lot}{\contentsline {table}{\numberline {8}{\ignorespaces \IeC {\CYRS }\IeC {\cyrt }\IeC {\cyrr }\IeC {\cyru }\IeC {\cyrk }\IeC {\cyrt }\IeC {\cyru }\IeC {\cyrr }\IeC {\cyra } \IeC {\cyru }\IeC {\cyrr }\IeC {\cyro }\IeC {\cyrk }\IeC {\cyra }}}{50}}
\newlabel{tab:lesson_4}{{8}{50}}
\@writefile{lof}{\contentsline {figure}{\numberline {1}{\ignorespaces \IeC {\CYRI }\IeC {\cyrl }\IeC {\cyrl }\IeC {\cyryu }\IeC {\cyrs }\IeC {\cyrt }\IeC {\cyrr }\IeC {\cyra }\IeC {\cyrc }\IeC {\cyri }\IeC {\cyrya } \IeC {\cyrk } \IeC {\cyrz }\IeC {\cyra }\IeC {\cyrd }\IeC {\cyra }\IeC {\cyrch }\IeC {\cyre }.\relax }}{52}}
\providecommand*\caption@xref[2]{\@setref\relax\@undefined{#1}}
\newlabel{fig:1}{{1}{52}}
\@writefile{lof}{\contentsline {figure}{\numberline {2}{\ignorespaces \IeC {\CYRI }\IeC {\cyrl }\IeC {\cyrl }\IeC {\cyryu }\IeC {\cyrs }\IeC {\cyrt }\IeC {\cyrr }\IeC {\cyra }\IeC {\cyrc }\IeC {\cyri }\IeC {\cyrya } \IeC {\cyrk } \IeC {\cyrz }\IeC {\cyra }\IeC {\cyrd }\IeC {\cyra }\IeC {\cyrch }\IeC {\cyre }.\relax }}{53}}
\newlabel{fig:2}{{2}{53}}
\gdef \LT@x {\LT@entry 
    {3}{32.71683pt}\LT@entry 
    {3}{97.75826pt}\LT@entry 
    {3}{97.75826pt}\LT@entry 
    {3}{97.75826pt}\LT@entry 
    {3}{40.85274pt}}
\@writefile{lot}{\contentsline {table}{\numberline {9}{\ignorespaces \IeC {\CYRS }\IeC {\cyrt }\IeC {\cyrr }\IeC {\cyru }\IeC {\cyrk }\IeC {\cyrt }\IeC {\cyru }\IeC {\cyrr }\IeC {\cyra } \IeC {\cyru }\IeC {\cyrr }\IeC {\cyro }\IeC {\cyrk }\IeC {\cyra }}}{55}}
\newlabel{tab:lesson_5}{{9}{55}}
\@writefile{toc}{\contentsline {likechapter}{\IeC {\CYRZ }\IeC {\cyra }\IeC {\cyrk }\IeC {\cyrl }\IeC {\cyryu }\IeC {\cyrch }\IeC {\cyre }\IeC {\cyrn }\IeC {\cyri }\IeC {\cyre }}{59}}
\bibcite{atanasjan}{{1}{}{{}}{{}}}
\bibcite{butuzov}{{2}{}{{}}{{}}}
\bibcite{levitas}{{3}{}{{}}{{}}}
\bibcite{sharygin}{{4}{}{{}}{{}}}
\bibcite{b01}{{5}{}{{}}{{}}}
\bibcite{b02}{{6}{}{{}}{{}}}
\bibcite{b03}{{7}{}{{}}{{}}}
\bibcite{b04}{{8}{}{{}}{{}}}
\bibcite{b05}{{9}{}{{}}{{}}}
\bibcite{b06}{{10}{}{{}}{{}}}
\bibcite{b07}{{11}{}{{}}{{}}}
\bibcite{b08}{{12}{}{{}}{{}}}
\@writefile{toc}{\contentsline {likechapter}{\IeC {\CYRS }\IeC {\cyrp }\IeC {\cyri }\IeC {\cyrs }\IeC {\cyro }\IeC {\cyrk } \IeC {\cyri }\IeC {\cyrs }\IeC {\cyrp }\IeC {\cyro }\IeC {\cyrl }\IeC {\cyrsftsn }\IeC {\cyrz }\IeC {\cyro }\IeC {\cyrv }\IeC {\cyra }\IeC {\cyrn }\IeC {\cyrn }\IeC {\cyrery }\IeC {\cyrh } \IeC {\cyri }\IeC {\cyrs }\IeC {\cyrt }\IeC {\cyro }\IeC {\cyrch }\IeC {\cyrn }\IeC {\cyri }\IeC {\cyrk }\IeC {\cyro }\IeC {\cyrv }}{60}}
\bibcite{b09}{{13}{}{{}}{{}}}
\bibcite{b10}{{14}{}{{}}{{}}}
\bibcite{b11}{{15}{}{{}}{{}}}
\bibcite{b12}{{16}{}{{}}{{}}}
\bibcite{b13}{{17}{}{{}}{{}}}
\bibcite{b14}{{18}{}{{}}{{}}}
\bibcite{b15}{{19}{}{{}}{{}}}
\bibcite{b16}{{20}{}{{}}{{}}}
\bibcite{b17}{{21}{}{{}}{{}}}
\bibcite{b18}{{22}{}{{}}{{}}}
\bibcite{b19}{{23}{}{{}}{{}}}
\bibcite{b20}{{24}{}{{}}{{}}}
\bibcite{b20}{{25}{}{{}}{{}}}
\bibcite{b21}{{26}{}{{}}{{}}}
\bibcite{b22}{{27}{}{{}}{{}}}
\bibcite{b23}{{28}{}{{}}{{}}}
\bibcite{b24}{{29}{}{{}}{{}}}
\bibcite{b25}{{30}{}{{}}{{}}}
\providecommand\NAT@force@numbers{}\NAT@force@numbers
